Thu Jul 27 15:51:23 EDT 2017
WARNING: TCMALLOCDIR not defined, will use libc malloc
Py:Athena            INFO including file "AthenaCommon/Preparation.py"
Py:Athena            INFO using release [?-21.0.0] [i686-slc5-gcc43-dbg] [?/?] -- built on [?]
Py:Athena            INFO including file "AthenaCommon/Atlas.UnixStandardJob.py"
Py:Athena            INFO executing ROOT6Setup
Py:Athena            INFO including file "AthenaCommon/Execution.py"
Py:Athena            INFO including file "AthExStoreGateExample/StoreGateExample_Reentrant_jobOptions.py"
Py:ConfigurableDb    INFO Read module info for 460 configurables from 2 genConfDb files
Py:ConfigurableDb    INFO No duplicates have been found: that's good !
Py:Athena            INFO including file "AthenaCommon/runbatch.py"
# setting LC_ALL to "C"
ApplicationMgr       INFO Updating Gaudi::PluginService::SetDebug(level) to level= 'PluginDebugLevel':0
ApplicationMgr    SUCCESS 
====================================================================================================================================
                                                   Welcome to ApplicationMgr (GaudiCoreSvc v27r1p99)
                                          running on karma on Thu Jul 27 15:51:26 2017
====================================================================================================================================
ApplicationMgr       INFO Successfully loaded modules : AthenaServices
ApplicationMgr       INFO Application Manager Configured successfully
ApplicationMgr       INFO Updating Gaudi::PluginService::SetDebug(level) to level= 'PluginDebugLevel':0[m
StatusCodeSvc        INFO initialize[m
AthDictLoaderSvc     INFO in initialize...[m
AthDictLoaderSvc     INFO acquired Dso-registry[m
ClassIDSvc           INFO  getRegistryEntries: read 2454 CLIDRegistry entries for module ALL[m
ChronoStatSvc        INFO  Number of skipped events for MemStat-1[m
CoreDumpSvc          INFO install f-a-t-a-l handler... (flag = -1)[m
CoreDumpSvc          INFO Handling signals: 11(Segmentation fault) 7(Bus error) 4(Illegal instruction) 8(Floating point exception) [m
AthenaEventLoopMgr   INFO Initializing AthenaEventLoopMgr - package version AthenaServices-00-00-00[m
ClassIDSvc           INFO  getRegistryEntries: read 1166 CLIDRegistry entries for module ALL[m
WriteDataReentrant   INFO in initialize()[m
StoreGateSvc        DEBUG Property update for OutputLevel : new value = 1[m
StoreGateSvc        DEBUG Service base class initialized successfully[m
StoreGateSvc      VERBOSE Initializing StoreGateSvc - package version StoreGate-00-00-00[m
StoreGateSvc        DEBUG trying to create store SGImplSvc/StoreGateSvc_Impl[m
StoreGateSvc_Impl   DEBUG Property update for OutputLevel : new value = 1[m
StoreGateSvc_Impl VERBOSE Initializing StoreGateSvc_Impl - package version StoreGate-00-00-00[m
StoreGateSvc_Impl   DEBUG Service base class initialized successfully[m
StoreGateSvc_Impl VERBOSE ServiceLocatorHelper::service: found service EventPersistencySvc[m
StoreGateSvc_Impl VERBOSE ServiceLocatorHelper::service: found service ClassIDSvc[m
ClassIDSvc           INFO  getRegistryEntries: read 374 CLIDRegistry entries for module ALL[m
ReadDataReentrant    INFO in initialize()[m
[93;1mHistogramPersis...WARNING Histograms saving not required.[m
ApplicationMgr       INFO Application Manager Initialized successfully[m
ApplicationMgr       INFO Application Manager Started successfully[m
StoreGateSvc_Impl   DEBUG Recorded object @0x55e8ba24dde0 with key  of type EventInfo(CLID 2101)
 in DataObject @0x55e8ba2447d0
 object modifiable when retrieved[m
StoreGateSvc_Impl   DEBUG Recorded object @s: 0  e: 0 with key EventContext of type EventContext(CLID 55596997)
 in DataObject @0x55e8ba24a6b0
 object modifiable when retrieved[m
AthenaEventLoopMgr   INFO   ===>>>  start of run 1    <<<===[m
AthenaEventLoopMgr   INFO   ===>>>  start processing event #1, run #1 0 events processed so far  <<<===[m
StoreGateSvc_Impl   DEBUG retrieve(default): Retrieved const handle to default object 
 of type EventInfo(CLID 2101)[m
WriteDataReentrant   INFO in execute()[m
[93;1mWriteDataReentrantWARNING we expect  an error message here[m
[93;1mStoreGateSvc_Impl WARNING  setupProxy:: error setting up proxy for key dobj and clid 8000
 Pre-existing valid DataProxy @0x55e8ba26b330 found in Store for key dobj with clid 8000[m
[93;1mStoreGateSvc_Impl WARNING record_impl: Problem setting up the proxy for object @0x55e8ba254170
 recorded with key dobj of type MyDataObj (CLID 8000) in DataObject @0x55e8ba22b740[m
[97;101;1mVarHandle(Store...  ERROR FILE:LINE (StatusCode SG::VarHandleBase::record_impl(std::unique_ptr<DataObject>, void*, bool, bool)): code 0: recordObject failed[m
[93;1mWriteDataReentrantWARNING end of error message[m
WriteDataReentrant   INFO  registered all data objects[m
WriteDataReentrant   INFO  StoreGate structure before returning from execute 
<<<<<<<<<<<<<<<<< Data Store Dump >>>>>>>>>>>>>>> 
SGImplSvc(StoreGateSvc_Impl)::dump():
Found 2 proxies for ClassID 1434 (BaseClass): 
 flags: (  valid, UNLOCKED,  reset) --- data: 0x55e8b9fc0210 --- key: WriteDataReentrant
 flags: (  valid, UNLOCKED,  reset) --- data: 0x55e8ba2295f0 --- key: dobj
Found 1 proxy for ClassID 2101 (EventInfo): 
 flags: (  valid, UNLOCKED,  reset) --- data: 0x55e8ba2447d0 --- key: 
Found 6 proxies for ClassID 8000 (MyDataObj): 
 flags: (  valid, UNLOCKED,  reset) --- data: 0x55e8b9fc0210 --- key: WriteDataReentrant
 flags: (  valid, UNLOCKED,  reset) --- data: 0x55e8ba2295f0 --- key: dobj
 flags: (  valid, UNLOCKED,  reset) --- data: 0x55e8ba26bb90 --- key: dobj2
 flags: (  valid,   locked,  reset) --- data: 0x55e8b9fc0be0 --- key: x1
 flags: (  valid,   locked,  reset) --- data: 0x55e8ba23b050 --- key: x2
 flags: (  valid,   locked,  reset) --- data: 0x55e8ba250920 --- key: x3
Found 1 proxy for ClassID 9967 (DataVector<MyContObj>): 
 flags: (  valid,   locked,  reset) --- data: 0x55e8ba22b8d0 --- key: cobj
Found 1 proxy for ClassID 9983 (std::vector< ElementLink<MapStringFloat> >): 
 flags: (  valid, UNLOCKED,  reset) --- data: 0x55e8ba2449a0 --- key: linkvec
Found 1 proxy for ClassID 9984 (std::list< ElementLink< std::vector<float> > >): 
 flags: (  valid, UNLOCKED,  reset) --- data: 0x55e8ba25b540 --- key: WriteDataReentrant
Found 1 proxy for ClassID 55596997 (EventContext): 
 flags: (  valid, UNLOCKED,  reset) --- data: 0x55e8ba24a6b0 --- key: EventContext
Found 1 proxy for ClassID 193758082 (std::map<std::string,float>): 
 flags: (  valid,   locked,  reset) --- data: 0x55e8ba26b6f0 --- key: mkey
Found 1 proxy for ClassID 202242136 (std::vector<float>): 
 flags: (  valid, UNLOCKED,  reset) --- data: 0x55e8ba25d090 --- key: vFloat
Found 1 proxy for ClassID 289238765 (TestDataObject): 
 flags: (  valid,   locked,  reset) --- data: 0x55e8ba2453d0 --- key: testobj
<<<<<<<<<<<<<<<<<<<<<<<<<>>>>>>>>>>>>>>>>>>>>>>>> 
[m
ReadDataReentrant    INFO in execute()[m
ReadDataReentrant    INFO Time: 11.3  ID: 132[m
ReadDataReentrant    INFO Time: 41.7  ID: 291[m
ReadDataReentrant    INFO pVec [0] = 1[m
ReadDataReentrant    INFO pVec [1] = 2[m
ReadDataReentrant    INFO pVec [2] = 3[m
ReadDataReentrant    INFO ListVecLinks::linked element 1[m
ReadDataReentrant    INFO ListVecLinks::linked element 3[m
ReadDataReentrant    INFO VectorMapLinks::linked element: key uno - value 1 - stored as 0x55e8ba244dcc[m
ReadDataReentrant    INFO VectorMapLinks::linked element: key due - value 2 - stored as 0x55e8ba244e0c[m
StoreGateSvc_Impl   DEBUG retrieve(default): Retrieved const handle to default object 
 of type EventInfo(CLID 2101)[m
AthenaEventLoopMgr   INFO   ===>>>  done processing event #1, run #1 1 events processed so far  <<<===[m
StoreGateSvc_Impl   DEBUG Clearing store with forceRemove=0[m
StoreGateSvc_Impl VERBOSE DataStore::clearStore() requesting release of DataProxy @0x55e8ba2452a0, recorded with key=WriteDataReentrant, CLID=8000, containing data object @0x55e8b9fc0210  ... -> DONE[m
StoreGateSvc_Impl VERBOSE DataStore::clearStore() requesting release of DataProxy @0x55e8ba26b330, recorded with key=dobj, CLID=8000, containing data object @0x55e8ba2295f0  ... -> DONE[m
StoreGateSvc_Impl VERBOSE DataStore::clearStore() requesting release of DataProxy @0x55e8ba268df0, recorded with key=, CLID=2101, containing data object @0x55e8ba2447d0  ... -> DONE[m
StoreGateSvc_Impl VERBOSE DataStore::clearStore() requesting release of DataProxy @0x55e8ba2452a0, recorded with key=WriteDataReentrant, CLID=8000, containing data object @0  ... -> DONE[m
StoreGateSvc_Impl VERBOSE DataStore::clearStore() requesting release of DataProxy @0x55e8ba26b330, recorded with key=dobj, CLID=8000, containing data object @0  ... -> DONE[m
StoreGateSvc_Impl VERBOSE DataStore::clearStore() requesting release of DataProxy @0x55e8ba25b320, recorded with key=dobj2, CLID=8000, containing data object @0x55e8ba26bb90  ... -> DONE[m
StoreGateSvc_Impl VERBOSE DataStore::clearStore() requesting release of DataProxy @0x55e8b9fc0d70, recorded with key=x1, CLID=8000, containing data object @0x55e8b9fc0be0  ... -> DONE[m
StoreGateSvc_Impl VERBOSE DataStore::clearStore() requesting release of DataProxy @0x55e8ba23b270, recorded with key=x2, CLID=8000, containing data object @0x55e8ba23b050  ... -> DONE[m
StoreGateSvc_Impl VERBOSE DataStore::clearStore() requesting release of DataProxy @0x55e8ba250ab0, recorded with key=x3, CLID=8000, containing data object @0x55e8ba250920  ... -> DONE[m
StoreGateSvc_Impl VERBOSE DataStore::clearStore() requesting release of DataProxy @0x55e8ba2505d0, recorded with key=cobj, CLID=9967, containing data object @0x55e8ba22b8d0  ... -> DONE[m
StoreGateSvc_Impl VERBOSE DataStore::clearStore() requesting release of DataProxy @0x55e8ba244b30, recorded with key=linkvec, CLID=9983, containing data object @0x55e8ba2449a0  ... -> DONE[m
StoreGateSvc_Impl VERBOSE DataStore::clearStore() requesting release of DataProxy @0x55e8ba25b740, recorded with key=WriteDataReentrant, CLID=9984, containing data object @0x55e8ba25b540  ... -> DONE[m
StoreGateSvc_Impl VERBOSE DataStore::clearStore() requesting release of DataProxy @0x55e8ba2340e0, recorded with key=EventContext, CLID=55596997, containing data object @0x55e8ba24a6b0  ... -> DONE[m
StoreGateSvc_Impl VERBOSE DataStore::clearStore() requesting release of DataProxy @0x55e8ba26b880, recorded with key=mkey, CLID=193758082, containing data object @0x55e8ba26b6f0  ... -> DONE[m
StoreGateSvc_Impl VERBOSE DataStore::clearStore() requesting release of DataProxy @0x55e8ba25d220, recorded with key=vFloat, CLID=202242136, containing data object @0x55e8ba25d090  ... -> DONE[m
StoreGateSvc_Impl VERBOSE DataStore::clearStore() requesting release of DataProxy @0x55e8ba245470, recorded with key=testobj, CLID=289238765, containing data object @0x55e8ba2453d0  ... -> DONE[m
StoreGateSvc_Impl   DEBUG Recorded object @0x55e8ba257870 with key  of type EventInfo(CLID 2101)
 in DataObject @0x55e8ba2453d0
 object modifiable when retrieved[m
StoreGateSvc_Impl   DEBUG Recorded object @s: 0  e: 1 with key EventContext of type EventContext(CLID 55596997)
 in DataObject @0x55e8ba26b6f0
 object modifiable when retrieved[m
AthenaEventLoopMgr   INFO   ===>>>  start processing event #2, run #1 1 events processed so far  <<<===[m
StoreGateSvc_Impl   DEBUG retrieve(default): Retrieved const handle to default object 
 of type EventInfo(CLID 2101)[m
WriteDataReentrant   INFO in execute()[m
[93;1mWriteDataReentrantWARNING we expect  an error message here[m
[93;1mStoreGateSvc_Impl WARNING  setupProxy:: error setting up proxy for key dobj and clid 8000
 Pre-existing valid DataProxy @0x55e8ba26b330 found in Store for key dobj with clid 8000[m
[93;1mStoreGateSvc_Impl WARNING record_impl: Problem setting up the proxy for object @0x55e8ba25b520
 recorded with key dobj of type MyDataObj (CLID 8000) in DataObject @0x55e8ba26baf0[m
[97;101;1mVarHandle(Store...  ERROR FILE:LINE (StatusCode SG::VarHandleBase::record_impl(std::unique_ptr<DataObject>, void*, bool, bool)): code 0: recordObject failed[m
[93;1mWriteDataReentrantWARNING end of error message[m
WriteDataReentrant   INFO  registered all data objects[m
WriteDataReentrant   INFO  StoreGate structure before returning from execute 
<<<<<<<<<<<<<<<<< Data Store Dump >>>>>>>>>>>>>>> 
SGImplSvc(StoreGateSvc_Impl)::dump():
Found 2 proxies for ClassID 1434 (BaseClass): 
 flags: (  valid, UNLOCKED,  reset) --- data: 0x55e8ba24a6b0 --- key: WriteDataReentrant
 flags: (  valid, UNLOCKED,  reset) --- data: 0x55e8ba26bb40 --- key: dobj
Found 1 proxy for ClassID 2101 (EventInfo): 
 flags: (  valid, UNLOCKED,  reset) --- data: 0x55e8ba2453d0 --- key: 
Found 6 proxies for ClassID 8000 (MyDataObj): 
 flags: (  valid, UNLOCKED,  reset) --- data: 0x55e8ba24a6b0 --- key: WriteDataReentrant
 flags: (  valid, UNLOCKED,  reset) --- data: 0x55e8ba26bb40 --- key: dobj
 flags: (  valid, UNLOCKED,  reset) --- data: 0x55e8ba2295f0 --- key: dobj2
 flags: (  valid,   locked,  reset) --- data: 0x55e8ba25b540 --- key: x1
 flags: (  valid,   locked,  reset) --- data: 0x55e8ba2449a0 --- key: x2
 flags: (  valid,   locked,  reset) --- data: 0x55e8ba250920 --- key: x3
Found 1 proxy for ClassID 9967 (DataVector<MyContObj>): 
 flags: (  valid,   locked,  reset) --- data: 0x55e8ba25c930 --- key: cobj
Found 1 proxy for ClassID 9983 (std::vector< ElementLink<MapStringFloat> >): 
 flags: (  valid, UNLOCKED,  reset) --- data: 0x55e8ba22b740 --- key: linkvec
Found 1 proxy for ClassID 9984 (std::list< ElementLink< std::vector<float> > >): 
 flags: (  valid, UNLOCKED,  reset) --- data: 0x55e8b9fc0210 --- key: WriteDataReentrant
Found 1 proxy for ClassID 55596997 (EventContext): 
 flags: (  valid, UNLOCKED,  reset) --- data: 0x55e8ba26b6f0 --- key: EventContext
Found 1 proxy for ClassID 193758082 (std::map<std::string,float>): 
 flags: (  valid,   locked,  reset) --- data: 0x55e8b9fc0be0 --- key: mkey
Found 1 proxy for ClassID 202242136 (std::vector<float>): 
 flags: (  valid, UNLOCKED,  reset) --- data: 0x55e8ba23b050 --- key: vFloat
Found 1 proxy for ClassID 289238765 (TestDataObject): 
 flags: (  valid,   locked,  reset) --- data: 0x55e8ba254b40 --- key: testobj
<<<<<<<<<<<<<<<<<<<<<<<<<>>>>>>>>>>>>>>>>>>>>>>>> 
[m
ReadDataReentrant    INFO in execute()[m
ReadDataReentrant    INFO Time: 11.3  ID: 132[m
ReadDataReentrant    INFO Time: 41.7  ID: 291[m
ReadDataReentrant    INFO pVec [0] = 1[m
ReadDataReentrant    INFO pVec [1] = 2[m
ReadDataReentrant    INFO pVec [2] = 3[m
ReadDataReentrant    INFO ListVecLinks::linked element 1[m
ReadDataReentrant    INFO ListVecLinks::linked element 3[m
ReadDataReentrant    INFO VectorMapLinks::linked element: key uno - value 1 - stored as 0x55e8ba2408bc[m
ReadDataReentrant    INFO VectorMapLinks::linked element: key due - value 2 - stored as 0x55e8ba2408fc[m
StoreGateSvc_Impl   DEBUG retrieve(default): Retrieved const handle to default object 
 of type EventInfo(CLID 2101)[m
AthenaEventLoopMgr   INFO   ===>>>  done processing event #2, run #1 2 events processed so far  <<<===[m
StoreGateSvc_Impl   DEBUG Clearing store with forceRemove=0[m
StoreGateSvc_Impl VERBOSE DataStore::clearStore() requesting release of DataProxy @0x55e8ba2452a0, recorded with key=WriteDataReentrant, CLID=8000, containing data object @0x55e8ba24a6b0  ... -> DONE[m
StoreGateSvc_Impl VERBOSE DataStore::clearStore() requesting release of DataProxy @0x55e8ba26b330, recorded with key=dobj, CLID=8000, containing data object @0x55e8ba26bb40  ... -> DONE[m
StoreGateSvc_Impl VERBOSE DataStore::clearStore() requesting release of DataProxy @0x55e8ba268df0, recorded with key=, CLID=2101, containing data object @0x55e8ba2453d0  ... -> DONE[m
StoreGateSvc_Impl VERBOSE DataStore::clearStore() requesting release of DataProxy @0x55e8ba2452a0, recorded with key=WriteDataReentrant, CLID=8000, containing data object @0  ... -> DONE[m
StoreGateSvc_Impl VERBOSE DataStore::clearStore() requesting release of DataProxy @0x55e8ba26b330, recorded with key=dobj, CLID=8000, containing data object @0  ... -> DONE[m
StoreGateSvc_Impl VERBOSE DataStore::clearStore() requesting release of DataProxy @0x55e8ba25b320, recorded with key=dobj2, CLID=8000, containing data object @0x55e8ba2295f0  ... -> DONE[m
StoreGateSvc_Impl VERBOSE DataStore::clearStore() requesting release of DataProxy @0x55e8b9fc0d70, recorded with key=x1, CLID=8000, containing data object @0x55e8ba25b540  ... -> DONE[m
StoreGateSvc_Impl VERBOSE DataStore::clearStore() requesting release of DataProxy @0x55e8ba23b270, recorded with key=x2, CLID=8000, containing data object @0x55e8ba2449a0  ... -> DONE[m
StoreGateSvc_Impl VERBOSE DataStore::clearStore() requesting release of DataProxy @0x55e8ba250ab0, recorded with key=x3, CLID=8000, containing data object @0x55e8ba250920  ... -> DONE[m
StoreGateSvc_Impl VERBOSE DataStore::clearStore() requesting release of DataProxy @0x55e8ba2505d0, recorded with key=cobj, CLID=9967, containing data object @0x55e8ba25c930  ... -> DONE[m
StoreGateSvc_Impl VERBOSE DataStore::clearStore() requesting release of DataProxy @0x55e8ba244b30, recorded with key=linkvec, CLID=9983, containing data object @0x55e8ba22b740  ... -> DONE[m
StoreGateSvc_Impl VERBOSE DataStore::clearStore() requesting release of DataProxy @0x55e8ba25b740, recorded with key=WriteDataReentrant, CLID=9984, containing data object @0x55e8b9fc0210  ... -> DONE[m
StoreGateSvc_Impl VERBOSE DataStore::clearStore() requesting release of DataProxy @0x55e8ba2340e0, recorded with key=EventContext, CLID=55596997, containing data object @0x55e8ba26b6f0  ... -> DONE[m
StoreGateSvc_Impl VERBOSE DataStore::clearStore() requesting release of DataProxy @0x55e8ba26b880, recorded with key=mkey, CLID=193758082, containing data object @0x55e8b9fc0be0  ... -> DONE[m
StoreGateSvc_Impl VERBOSE DataStore::clearStore() requesting release of DataProxy @0x55e8ba25d220, recorded with key=vFloat, CLID=202242136, containing data object @0x55e8ba23b050  ... -> DONE[m
StoreGateSvc_Impl VERBOSE DataStore::clearStore() requesting release of DataProxy @0x55e8ba245470, recorded with key=testobj, CLID=289238765, containing data object @0x55e8ba254b40  ... -> DONE[m
StoreGateSvc_Impl   DEBUG Recorded object @0x55e8ba257870 with key  of type EventInfo(CLID 2101)
 in DataObject @0x55e8ba254b40
 object modifiable when retrieved[m
StoreGateSvc_Impl   DEBUG Recorded object @s: 0  e: 2 with key EventContext of type EventContext(CLID 55596997)
 in DataObject @0x55e8b9fc0be0
 object modifiable when retrieved[m
AthenaEventLoopMgr   INFO   ===>>>  start processing event #3, run #1 2 events processed so far  <<<===[m
StoreGateSvc_Impl   DEBUG retrieve(default): Retrieved const handle to default object 
 of type EventInfo(CLID 2101)[m
WriteDataReentrant   INFO in execute()[m
[93;1mWriteDataReentrantWARNING we expect  an error message here[m
[93;1mStoreGateSvc_Impl WARNING  setupProxy:: error setting up proxy for key dobj and clid 8000
 Pre-existing valid DataProxy @0x55e8ba26b330 found in Store for key dobj with clid 8000[m
[93;1mStoreGateSvc_Impl WARNING record_impl: Problem setting up the proxy for object @0x55e8ba240c60
 recorded with key dobj of type MyDataObj (CLID 8000) in DataObject @0x55e8ba26bb90[m
[97;101;1mVarHandle(Store...  ERROR FILE:LINE (StatusCode SG::VarHandleBase::record_impl(std::unique_ptr<DataObject>, void*, bool, bool)): code 0: recordObject failed[m
[93;1mWriteDataReentrantWARNING end of error message[m
WriteDataReentrant   INFO  registered all data objects[m
WriteDataReentrant   INFO  StoreGate structure before returning from execute 
<<<<<<<<<<<<<<<<< Data Store Dump >>>>>>>>>>>>>>> 
SGImplSvc(StoreGateSvc_Impl)::dump():
Found 2 proxies for ClassID 1434 (BaseClass): 
 flags: (  valid, UNLOCKED,  reset) --- data: 0x55e8ba26b6f0 --- key: WriteDataReentrant
 flags: (  valid, UNLOCKED,  reset) --- data: 0x55e8ba2447d0 --- key: dobj
Found 1 proxy for ClassID 2101 (EventInfo): 
 flags: (  valid, UNLOCKED,  reset) --- data: 0x55e8ba254b40 --- key: 
Found 6 proxies for ClassID 8000 (MyDataObj): 
 flags: (  valid, UNLOCKED,  reset) --- data: 0x55e8ba26b6f0 --- key: WriteDataReentrant
 flags: (  valid, UNLOCKED,  reset) --- data: 0x55e8ba2447d0 --- key: dobj
 flags: (  valid, UNLOCKED,  reset) --- data: 0x55e8ba26bb40 --- key: dobj2
 flags: (  valid,   locked,  reset) --- data: 0x55e8b9fc0210 --- key: x1
 flags: (  valid,   locked,  reset) --- data: 0x55e8ba22b740 --- key: x2
 flags: (  valid,   locked,  reset) --- data: 0x55e8ba250920 --- key: x3
Found 1 proxy for ClassID 9967 (DataVector<MyContObj>): 
 flags: (  valid,   locked,  reset) --- data: 0x55e8ba22bca0 --- key: cobj
Found 1 proxy for ClassID 9983 (std::vector< ElementLink<MapStringFloat> >): 
 flags: (  valid, UNLOCKED,  reset) --- data: 0x55e8ba20b670 --- key: linkvec
Found 1 proxy for ClassID 9984 (std::list< ElementLink< std::vector<float> > >): 
 flags: (  valid, UNLOCKED,  reset) --- data: 0x55e8ba24a6b0 --- key: WriteDataReentrant
Found 1 proxy for ClassID 55596997 (EventContext): 
 flags: (  valid, UNLOCKED,  reset) --- data: 0x55e8b9fc0be0 --- key: EventContext
Found 1 proxy for ClassID 193758082 (std::map<std::string,float>): 
 flags: (  valid,   locked,  reset) --- data: 0x55e8ba25b540 --- key: mkey
Found 1 proxy for ClassID 202242136 (std::vector<float>): 
 flags: (  valid, UNLOCKED,  reset) --- data: 0x55e8ba2449a0 --- key: vFloat
Found 1 proxy for ClassID 289238765 (TestDataObject): 
 flags: (  valid,   locked,  reset) --- data: 0x55e8ba25d090 --- key: testobj
<<<<<<<<<<<<<<<<<<<<<<<<<>>>>>>>>>>>>>>>>>>>>>>>> 
[m
ReadDataReentrant    INFO in execute()[m
ReadDataReentrant    INFO Time: 11.3  ID: 132[m
ReadDataReentrant    INFO Time: 41.7  ID: 291[m
ReadDataReentrant    INFO pVec [0] = 1[m
ReadDataReentrant    INFO pVec [1] = 2[m
ReadDataReentrant    INFO pVec [2] = 3[m
ReadDataReentrant    INFO ListVecLinks::linked element 1[m
ReadDataReentrant    INFO ListVecLinks::linked element 3[m
ReadDataReentrant    INFO VectorMapLinks::linked element: key uno - value 1 - stored as 0x55e8ba20b81c[m
ReadDataReentrant    INFO VectorMapLinks::linked element: key due - value 2 - stored as 0x55e8ba20b85c[m
StoreGateSvc_Impl   DEBUG retrieve(default): Retrieved const handle to default object 
 of type EventInfo(CLID 2101)[m
AthenaEventLoopMgr   INFO   ===>>>  done processing event #3, run #1 3 events processed so far  <<<===[m
StoreGateSvc_Impl   DEBUG Clearing store with forceRemove=0[m
StoreGateSvc_Impl VERBOSE DataStore::clearStore() requesting release of DataProxy @0x55e8ba2452a0, recorded with key=WriteDataReentrant, CLID=8000, containing data object @0x55e8ba26b6f0  ... -> DONE[m
StoreGateSvc_Impl VERBOSE DataStore::clearStore() requesting release of DataProxy @0x55e8ba26b330, recorded with key=dobj, CLID=8000, containing data object @0x55e8ba2447d0  ... -> DONE[m
StoreGateSvc_Impl VERBOSE DataStore::clearStore() requesting release of DataProxy @0x55e8ba268df0, recorded with key=, CLID=2101, containing data object @0x55e8ba254b40  ... -> DONE[m
StoreGateSvc_Impl VERBOSE DataStore::clearStore() requesting release of DataProxy @0x55e8ba2452a0, recorded with key=WriteDataReentrant, CLID=8000, containing data object @0  ... -> DONE[m
StoreGateSvc_Impl VERBOSE DataStore::clearStore() requesting release of DataProxy @0x55e8ba26b330, recorded with key=dobj, CLID=8000, containing data object @0  ... -> DONE[m
StoreGateSvc_Impl VERBOSE DataStore::clearStore() requesting release of DataProxy @0x55e8ba25b320, recorded with key=dobj2, CLID=8000, containing data object @0x55e8ba26bb40  ... -> DONE[m
StoreGateSvc_Impl VERBOSE DataStore::clearStore() requesting release of DataProxy @0x55e8b9fc0d70, recorded with key=x1, CLID=8000, containing data object @0x55e8b9fc0210  ... -> DONE[m
StoreGateSvc_Impl VERBOSE DataStore::clearStore() requesting release of DataProxy @0x55e8ba23b270, recorded with key=x2, CLID=8000, containing data object @0x55e8ba22b740  ... -> DONE[m
StoreGateSvc_Impl VERBOSE DataStore::clearStore() requesting release of DataProxy @0x55e8ba250ab0, recorded with key=x3, CLID=8000, containing data object @0x55e8ba250920  ... -> DONE[m
StoreGateSvc_Impl VERBOSE DataStore::clearStore() requesting release of DataProxy @0x55e8ba2505d0, recorded with key=cobj, CLID=9967, containing data object @0x55e8ba22bca0  ... -> DONE[m
StoreGateSvc_Impl VERBOSE DataStore::clearStore() requesting release of DataProxy @0x55e8ba244b30, recorded with key=linkvec, CLID=9983, containing data object @0x55e8ba20b670  ... -> DONE[m
StoreGateSvc_Impl VERBOSE DataStore::clearStore() requesting release of DataProxy @0x55e8ba25b740, recorded with key=WriteDataReentrant, CLID=9984, containing data object @0x55e8ba24a6b0  ... -> DONE[m
StoreGateSvc_Impl VERBOSE DataStore::clearStore() requesting release of DataProxy @0x55e8ba2340e0, recorded with key=EventContext, CLID=55596997, containing data object @0x55e8b9fc0be0  ... -> DONE[m
StoreGateSvc_Impl VERBOSE DataStore::clearStore() requesting release of DataProxy @0x55e8ba26b880, recorded with key=mkey, CLID=193758082, containing data object @0x55e8ba25b540  ... -> DONE[m
StoreGateSvc_Impl VERBOSE DataStore::clearStore() requesting release of DataProxy @0x55e8ba25d220, recorded with key=vFloat, CLID=202242136, containing data object @0x55e8ba2449a0  ... -> DONE[m
StoreGateSvc_Impl VERBOSE DataStore::clearStore() requesting release of DataProxy @0x55e8ba245470, recorded with key=testobj, CLID=289238765, containing data object @0x55e8ba25d090  ... -> DONE[m
StoreGateSvc      VERBOSE Stop StoreGateSvc[m
StoreGateSvc      VERBOSE stop: setting service priority to 101 so that event stores get finalized and cleared before other stores[m
ApplicationMgr       INFO Application Manager Stopped successfully[m
IncidentProcAlg1     INFO Finalize[m
WriteDataReentrant   INFO in finalize()[m
ReadDataReentrant    INFO in finalize()[m
IncidentProcAlg2     INFO Finalize[m
StoreGateSvc      VERBOSE Finalizing StoreGateSvc - package version StoreGate-00-00-00[m
StoreGateSvc_Impl VERBOSE Finalizing StoreGateSvc_Impl - package version StoreGate-00-00-00[m
StoreGateSvc_Impl   DEBUG Clearing store with forceRemove=1[m
StoreGateSvc_Impl VERBOSE DataStore::clearStore() forcing release of DataProxy @0x55e8ba2452a0, recorded with key=WriteDataReentrant, CLID=8000, containing data object @0  ... -> DONE[m
StoreGateSvc_Impl VERBOSE DataStore::clearStore() forcing release of DataProxy @0x55e8ba26b330, recorded with key=dobj, CLID=8000, containing data object @0  ... -> DONE[m
StoreGateSvc_Impl VERBOSE DataStore::clearStore() forcing release of DataProxy @0x55e8ba268df0, recorded with key=, CLID=2101, containing data object @0  ... -> DONE[m
StoreGateSvc_Impl VERBOSE DataStore::clearStore() forcing release of DataProxy @0x55e8ba2452a0, recorded with key=WriteDataReentrant, CLID=8000, containing data object @0  ... -> DONE[m
StoreGateSvc_Impl VERBOSE DataStore::clearStore() forcing release of DataProxy @0x55e8ba26b330, recorded with key=dobj, CLID=8000, containing data object @0  ... -> DONE[m
StoreGateSvc_Impl VERBOSE DataStore::clearStore() forcing release of DataProxy @0x55e8ba25b320, recorded with key=dobj2, CLID=8000, containing data object @0  ... -> DONE[m
StoreGateSvc_Impl VERBOSE DataStore::clearStore() forcing release of DataProxy @0x55e8b9fc0d70, recorded with key=x1, CLID=8000, containing data object @0  ... -> DONE[m
StoreGateSvc_Impl VERBOSE DataStore::clearStore() forcing release of DataProxy @0x55e8ba23b270, recorded with key=x2, CLID=8000, containing data object @0  ... -> DONE[m
StoreGateSvc_Impl VERBOSE DataStore::clearStore() forcing release of DataProxy @0x55e8ba250ab0, recorded with key=x3, CLID=8000, containing data object @0  ... -> DONE[m
StoreGateSvc_Impl VERBOSE DataStore::clearStore() forcing release of DataProxy @0x55e8ba2505d0, recorded with key=cobj, CLID=9967, containing data object @0  ... -> DONE[m
StoreGateSvc_Impl VERBOSE DataStore::clearStore() forcing release of DataProxy @0x55e8ba244b30, recorded with key=linkvec, CLID=9983, containing data object @0  ... -> DONE[m
StoreGateSvc_Impl VERBOSE DataStore::clearStore() forcing release of DataProxy @0x55e8ba25b740, recorded with key=WriteDataReentrant, CLID=9984, containing data object @0  ... -> DONE[m
StoreGateSvc_Impl VERBOSE DataStore::clearStore() forcing release of DataProxy @0x55e8ba2340e0, recorded with key=EventContext, CLID=55596997, containing data object @0  ... -> DONE[m
StoreGateSvc_Impl VERBOSE DataStore::clearStore() forcing release of DataProxy @0x55e8ba26b880, recorded with key=mkey, CLID=193758082, containing data object @0  ... -> DONE[m
StoreGateSvc_Impl VERBOSE DataStore::clearStore() forcing release of DataProxy @0x55e8ba25d220, recorded with key=vFloat, CLID=202242136, containing data object @0  ... -> DONE[m
StoreGateSvc_Impl VERBOSE DataStore::clearStore() forcing release of DataProxy @0x55e8ba245470, recorded with key=testobj, CLID=289238765, containing data object @0  ... -> DONE[m
AthDictLoaderSvc     INFO in finalize...[m
ToolSvc              INFO Removing all tools created by ToolSvc[m
*****Chrono*****     INFO ****************************************************************************************************[m
*****Chrono*****     INFO  The Final CPU consumption ( Chrono ) Table (ordered)[m
*****Chrono*****     INFO ****************************************************************************************************[m
ChronoStatSvc        INFO Time User   : Tot=  230 [ms]                                             #=  1[m
*****Chrono*****     INFO ****************************************************************************************************[m
ChronoStatSvc.f...   INFO  Service finalized successfully [m
ApplicationMgr       INFO Application Manager Finalized successfully[m
ApplicationMgr       INFO Application Manager Terminated successfully[m
Py:Athena            INFO leaving with code 0: "successful run"
